..............
----------------------------------------------------------------------
Ran 14 tests in 0.024s

OK
Name             Stmts   Miss Branch BrPart  Cover   Missing
------------------------------------------------------------
Collatz.py          34      1     12      1    96%   44, 43->44
TestCollatz.py      63      0      0      0   100%
------------------------------------------------------------
TOTAL               97      1     12      1    98%
